Klokkerholm,60 14 90 0A1,Бампер передний,Временно нет в продаже
Klokkerholm,6014901,Бампер передний,Временно нет в продаже
Klokkerholm,6014902,Бампер передний,Временно нет в продаже
Klokkerholm,60 14 95 0A1,Бампер задний,Временно нет в продаже
Klokkerholm,60 14 95 1A1,Бампер задний,Временно нет в продаже
Klokkerholm,60 14 96 1A1,"Бампер задний, левая часть",Временно нет в продаже
Klokkerholm,60 14 96 2A1,"Бампер задний, правая часть",Временно нет в продаже
Pilkington,400055962,Ветровое стекло,Временно нет в продаже
Pilkington,400056000,Ветровое стекло,Временно нет в продаже
Klokkerholm,6014004,Вспомогательная рама/агрегат опоры,Временно нет в продаже
Valeo,890 015,Датчик сист. помощи при парковке,5804
Vemo,V46-72-0176,Датчик парковки,4958
TYC,19-12166-01-2,"Фонарь противотуманный, задний",2151
TYC,19-12166-01-2,"Фонарь противотуманный, задний",2425
Alkar,2251187,Фонарь задний,Временно нет в продаже
Alkar,2252187,Фонарь задний,Временно нет в продаже
Klokkerholm,60140701A1,Задний фонарь,Временно нет в продаже
Klokkerholm,60140702A1,Задний фонарь,Временно нет в продаже
Klokkerholm,60140703A1,Задний фонарь,Временно нет в продаже
Klokkerholm,60140704A1,Задний фонарь,Временно нет в продаже
Klokkerholm,60140711,Задний фонарь,Временно нет в продаже
Klokkerholm,60140712,Задний фонарь,Временно нет в продаже
Klokkerholm,60140713,Задний фонарь,Временно нет в продаже
Klokkerholm,60140714,Задний фонарь,Временно нет в продаже
TYC,11-14427-06-2,Фонарь задний,3538
TYC,11-14427-06-2,Фонарь задний,3991
TYC,11-14428-06-2,Фонарь задний,6151
Metalcaucho,42105,"Зажим, молдинг / защитная накладка",Временно нет в продаже
Metalcaucho,42108,"Зажим, молдинг / защитная накладка",Временно нет в продаже
Alkar,6431178,"Стекло зеркала правого c подогревом, асферическое",Временно нет в продаже
Alkar,6432178,"Стекло зеркала правого c подогревом, сферическое",734
Alkar,6471178,"Стекло зеркала левого c подогревом, асферическое",794
Alkar,6471178,"Стекло зеркала левого c подогревом, асферическое",872
Alkar,6472178,"Стекло зеркала левого c подогревом, сферическое",Временно нет в продаже
TYC,32-8019-11,"Стекло зеркала правого c подогревом, сферическое",710
TYC,32-8019-11,"Стекло зеркала правого c подогревом, сферическое",738
TYC,32-8019-21,"Стекло зеркала левого c подогревом, асферическое",Временно нет в продаже
Vemo,V46-69-0023,"Стекло зеркала правого c подогревом, сферическое",Временно нет в продаже
Vemo,V46-69-0024,"Стекло зеркала левого c подогревом, асферическое",Временно нет в продаже
Klokkerholm,60341061,"Стекло зеркала левого c подогревом, асферическое",Временно нет в продаже
Klokkerholm,60341062,"Стекло зеркала правого c подогревом, асферическое",Временно нет в продаже
Klokkerholm,6014280,Капот двигателя,Временно нет в продаже
Klokkerholm,60341051,"Корпус, наружное зеркало",Временно нет в продаже
Klokkerholm,60341052,"Корпус, наружное зеркало",Временно нет в продаже
Klokkerholm,60341053,"Корпус, наружное зеркало",Временно нет в продаже
Klokkerholm,60341054,"Корпус, наружное зеркало",Временно нет в продаже
Klokkerholm,6014311,Крыло,Временно нет в продаже
Klokkerholm,6014312,Крыло,Временно нет в продаже
Champion,CBH01S,"Лампа накаливания, фара дальнего света",Временно нет в продаже
Champion,CBH03B,"Лампа накаливания, фара с авт. системой стабилизации",Временно нет в продаже
Hella,8GH 002 089-133,"Лампа галоген"" H1"" 12В 55Вт",190
Hella,8GH 002 089-133,"Лампа галоген"" H1"" 12В 55Вт",262
Neolux,N448,"Лампа накаливания, ""H1"" 12В 55Вт",65
Neolux,N448-01B,"Лампа накаливания, ""H1"" 12В 55Вт",76
Neolux,N448-01B,"Лампа накаливания, ""H1"" 12В 55Вт",80
Neolux,N448B,"Лампа накаливания, ""H1"" 12В 55Вт",259
Neolux,N448B,"Лампа накаливания, ""H1"" 12В 55Вт",614
Neolux,N448B-HCB,"Лампа накаливания, фара с авт. системой стабилизации",Временно нет в продаже
Neolux,N448B-SCB,"Лампа накаливания, фара дальнего света",478
Neolux,N448B-SCB,"Лампа накаливания, фара дальнего света",495
Neolux,N448EL,"Лампа накаливания, ""H1"" 12В 55Вт",139
Neolux,N448EL,"Лампа накаливания, ""H1"" 12В 55Вт",207
Neolux,N448EL-HCB,"Лампа накаливания, ""H1"" 12В 55Вт, 2шт",Временно нет в продаже
Neolux,N448EL-SCB,"Лампа накаливания, основная фара",330
Neolux,N448LL-SCB,"Лампа накаливания, основная фара",204
Osram,64150,"Лампа накаливания, ""Original Line H1"" 12В 55Вт, 1шт",107
Osram,64150,"Лампа накаливания, ""Original Line H1"" 12В 55Вт, 1шт",163
Osram,64150-01B,"Лампа накаливания, ""Original Line H1"" 12В 55Вт, 1шт",137
Osram,64150-01B,"Лампа накаливания, ""Original Line H1"" 12В 55Вт, 1шт",187
Osram,64150 ALS,"Лампа накаливания, ""ALLSEASON H1"" 12В 55Вт, 1шт",277
Osram,64150 ALS,"Лампа накаливания, ""ALLSEASON H1"" 12В 55Вт, 1шт",336
Osram,64150CBI,"Лампа накаливания, ""COOL BLUE INTENSE H1"" 12В 55Вт, 1шт",278
Osram,64150CBI,"Лампа накаливания, ""COOL BLUE INTENSE H1"" 12В 55Вт, 1шт",330
Osram,64150CBI-01B,"Лампа накаливания, ""COOL BLUE INTENSE H1"" 12В 55Вт, 1шт",317
Osram,64150CBI-01B,"Лампа накаливания, ""COOL BLUE INTENSE H1"" 12В 55Вт, 1шт",404
Osram,64150CBI-HCB,"Лампа накаливания, ""H1"" 12В 55Вт, 2шт",622
Osram,64150CBI-HCB,"Лампа накаливания, ""H1"" 12В 55Вт, 2шт",834
Osram,64150NBS,"Лампа галоген"" Night Breaker Silver H1"" 12В 55Вт, 1шт",261
Osram,64150NBS-01B,"Лампа галоген"" Night Breaker Silver H1"" 12В 55Вт, 1шт",283
Osram,64150NBS-01B,"Лампа галоген"" Night Breaker Silver H1"" 12В 55Вт, 1шт",593
Osram,64150NBS-HCB,"Лампа галоген"" Night Breaker Silver H1"" 12В 55Вт, 2шт",580
Osram,64150NBS-HCB,"Лампа галоген"" Night Breaker Silver H1"" 12В 55Вт, 2шт",713
Osram,64150NL,"Лампа галоген"" Night Breaker Laser H1"" 12В 55Вт, 1шт",591
Osram,64150NL,"Лампа галоген"" Night Breaker Laser H1"" 12В 55Вт, 1шт",609
Osram,64150NL01B,"Лампа галоген"" Night Breaker Laser H1"" 12В 55Вт, 1шт",640
Osram,64150NL01B,"Лампа галоген"" Night Breaker Laser H1"" 12В 55Вт, 1шт",834
Osram,64150NL-HCB,"Лампа галоген"" Night Breaker Laser H1"" 12В 55Вт, 2шт",1288
Osram,64150NL-HCB,"Лампа галоген"" Night Breaker Laser H1"" 12В 55Вт, 2шт",1476
Osram,64150SUP,"Лампа накаливания, ""SUPER H1"" 12В 55Вт, 1шт",151
Osram,64150ULT,"Лампа накаливания, ""ULTRA LIFE H1"" 12В 55Вт, 1шт",192
Osram,64150ULT,"Лампа накаливания, ""ULTRA LIFE H1"" 12В 55Вт, 1шт",257
Osram,64150ULT-01B,"Лампа накаливания, ""ULTRA LIFE H1"" 12В 55Вт, 1шт",232
Osram,64150ULT-HCB,"Лампа накаливания, ""ULTRA LIFE H1"" 12В 55Вт, 2шт",455
Osram,64150ULT-HCB,"Лампа накаливания, ""ULTRA LIFE H1"" 12В 55Вт, 2шт",652
Philips,12258 LLECOB1,"Лампа галоген"" LongerLife Ecovision H1"" 12В 55Вт",221
Philips,12258 LLECOB1,"Лампа галоген"" LongerLife Ecovision H1"" 12В 55Вт",254
Philips,12258 LLECOC1,"Лампа галоген"" LongerLife Ecovision H1"" 12В 55Вт",199
Philips,12258 LLECOC1,"Лампа галоген"" LongerLife Ecovision H1"" 12В 55Вт",201
Philips,12258LLECOS2,"Лампа галоген"" LongLife Ecovision H1"" 12В 55Вт",348
Philips,12258LLECOS2,"Лампа галоген"" LongLife Ecovision H1"" 12В 55Вт",441
Philips,12258 PRB1,"Лампа галоген"" Premium Plus 30 H1"" 12В 55Вт",152
Philips,12258 PRB1,"Лампа галоген"" Premium Plus 30 H1"" 12В 55Вт",178
Philips,12258 PRC1,"Лампа галоген"" Premium Plus 30 H1"" 12В 55Вт",146
Philips,12258 PRC1,"Лампа галоген"" Premium Plus 30 H1"" 12В 55Вт",194
Philips,12258 VPB1,"Лампа галоген"" VisionPlus H1"" 12В 55Вт",299
Philips,12258 VPB1,"Лампа галоген"" VisionPlus H1"" 12В 55Вт",430
Philips,12258 VPS2,"Лампа галоген"" VisionPlus H1"" 12В 55Вт",647
Philips,12258 VPS2,"Лампа галоген"" VisionPlus H1"" 12В 55Вт",832
Philips,12258WHVB1,"Лампа накаливания, в блистере ""WhiteVision""",480
Philips,12258WHVB1,"Лампа накаливания, в блистере ""WhiteVision""",623
Philips,12258WHVSM,"Комплект ламп накаливания ""WhiteVision"", 2 шт",981
Philips,12258WHVSM,"Комплект ламп накаливания ""WhiteVision"", 2 шт",1035
Philips,12258 XVB1,"Лампа галоген"" X-tremeVision H1"" 12В 55Вт, 1шт",472
Philips,12258 XVB1,"Лампа галоген"" X-tremeVision H1"" 12В 55Вт, 1шт",596
Philips,12258 XVS2,"Лампа галоген"" X-tremeVision H1"" 12В 55Вт, 2шт",807
Philips,12258 XVS2,"Лампа галоген"" X-tremeVision H1"" 12В 55Вт, 2шт",1145
Philips,12258XVGB1,Лампа,579
Philips,12258XVGB1,Лампа,640
Philips,12258XVGS2,Лампа,1157
Philips,12258XVGS2,Лампа,1173
Valeo,032 002,"Лампа накаливания, ""H1"" 12В 55Вт, 1шт",99
Valeo,032 002,"Лампа накаливания, ""H1"" 12В 55Вт, 1шт",176
Valeo,032 003,"Лампа накаливания, ""Essential H1"" 12В 55Вт",104
Valeo,032 003,"Лампа накаливания, ""Essential H1"" 12В 55Вт",108
Valeo,032 500,"Лампа накаливания, ""H1"" 12В 55Вт, 1шт",Временно нет в продаже
Valeo,032 502,"Лампа накаливания, ""H1"" 12В 55Вт, 1шт",241
Valeo,032 502,"Лампа накаливания, ""H1"" 12В 55Вт, 1шт",261
Valeo,032 504,"Лампа накаливания, ""H1"" 12В 55Вт, 1шт",141
Valeo,032 504,"Лампа накаливания, ""H1"" 12В 55Вт, 1шт",307
Vemo,V99-84-0012,"Лампа накаливания, ""H1"" 12В 55Вт",Временно нет в продаже
Champion,CBM45S,"Лампа накаливания, фонарь сигнала тормоза/задний габаритный",Временно нет в продаже
Hella,8GA 002 073-121,"Лампа накаливания"" P21W"" 12В 21Вт",46
Hella,8GA 002 073-121,"Лампа накаливания"" P21W"" 12В 21Вт",47
Neolux,N382,"Лампа накаливания, ""P21W"" 12В 21Вт",41
Neolux,N382,"Лампа накаливания, ""P21W"" 12В 21Вт",47
Neolux,N382-02B,"Лампа накаливания, ""P21W"" 12В 21Вт, 2шт",44
Osram,7506,"Лампа накаливания"" Original Line P21W"" 12В 21Вт, 1шт",57
Osram,7506,"Лампа накаливания"" Original Line P21W"" 12В 21Вт, 1шт",60
Osram,7506-02B,"Лампа накаливания, ""ORIGINAL LINE P21W"" 12В 21Вт, 2шт",93
Osram,7506-02B,"Лампа накаливания, ""ORIGINAL LINE P21W"" 12В 21Вт, 2шт",112
Osram,7506ULT,"Лампа накаливания, ""ULTRA LIFE P21W"" 12В 21Вт, 1шт",58
Osram,7506ULT-02B,"Лампа накаливания, ""ULTRA LIFE P21W"" 12В 21Вт, 2шт",130
Osram,7506ULT-02B,"Лампа накаливания, ""ULTRA LIFE P21W"" 12В 21Вт, 2шт",182
Philips,12498 B2,"Лампа накаливания"" Premium P21W"" 12В 21Вт",90
Philips,12498 B2,"Лампа накаливания"" Premium P21W"" 12В 21Вт",119
Philips,12498 CP,"Лампа накаливания"" Premium P21W"" 12В 21Вт",36
Philips,12498 LLECOB2,"Лампа накаливания, ""P21W"" 12В 21Вт",120
Philips,12498 LLECOB2,"Лампа накаливания, ""P21W"" 12В 21Вт",144
Philips,12498 LLECOCP,"Лампа накаливания, ""P21W"" 12В 21Вт",87
Philips,12498 LLECOCP,"Лампа накаливания, ""P21W"" 12В 21Вт",100
Philips,12498 VPB2,"Лампа накаливания"" VisionPlus P21W"" 12В 21Вт",139
Philips,12498 VPB2,"Лампа накаливания"" VisionPlus P21W"" 12В 21Вт",182
Valeo,032 101,"Лампа накаливания, ""P21W"" 12В 21Вт",77
Valeo,032 106,"Лампа накаливания, ""P21W"" 12В 21Вт, 2шт",78
Valeo,032 201,"Лампа накаливания, ""Essential P21W"" 12В 21Вт",20
Valeo,032 201,"Лампа накаливания, ""Essential P21W"" 12В 21Вт",21
Vemo,V99-84-0003,Лампа накаливания,Временно нет в продаже
Champion,CBM60S,"Лампа накаливания, oсвещение салона",Временно нет в продаже
Champion,CBM62B,"Лампа накаливания, габаритные фонари",Временно нет в продаже
Hella,8GP 003 594-121,Лампа накаливания,15
Neolux,N501,"Лампа накаливания, ""W5W"" 12В 5Вт",36
Neolux,N501,"Лампа накаливания, ""W5W"" 12В 5Вт",40
Neolux,N501-02B,"Лампа накаливания, ""W5W"" 12В 5Вт, 2шт",34
Neolux,N501-02B,"Лампа накаливания, ""W5W"" 12В 5Вт, 2шт",63
Osram,2825,"Лампа накаливания габаритных огней ""W5W""",20
Osram,2825-02B,"Лампа накаливания, ""ORIGINAL LINE W5W"" 12В 5Вт, 2шт",48
Osram,2825-02B,"Лампа накаливания, ""ORIGINAL LINE W5W"" 12В 5Вт, 2шт",52
Osram,2825ULT,"Лампа накаливания, ""ULTRA LIFE W5W"" 12В 5Вт, 1шт",61
Osram,2825ULT,"Лампа накаливания, ""ULTRA LIFE W5W"" 12В 5Вт, 1шт",73
Osram,2825ULT-02B,"Лампа накаливания, ""ULTRA LIFE W5W"" 12В 5Вт, 2шт",85
Osram,2825ULT-02B,"Лампа накаливания, ""ULTRA LIFE W5W"" 12В 5Вт, 2шт",454
Philips,12961 B2,"Комплект ламп накаливания, в блистере",65
Philips,12961 CP,Лампа накаливания,49
Philips,12961 CP,Лампа накаливания,55
Philips,12961 LLECOB2,"Лампа накаливания, ""W5W"" 12В 5Вт",120
Philips,12961 LLECOB2,"Лампа накаливания, ""W5W"" 12В 5Вт",128
Philips,12961 LLECOCP,"Лампа накаливания, ""W5W"" 12В 5Вт",60
Philips,12961 LLECOCP,"Лампа накаливания, ""W5W"" 12В 5Вт",72
Philips,12961NBVB2,Лампа накаливания,182
Philips,12961NBVB2,Лампа накаливания,224
Valeo,032 116,"Лампа накаливания, ""W5W"" 12В 5Вт, 2шт",Временно нет в продаже
Valeo,032 211,Лампа накаливания,15
Vemo,V99-84-0001,"Лампа накаливания, ""W5W"" 12В 5Вт",203
Champion,CBH01S,"Лампа накаливания, фара дальнего света",Временно нет в продаже
Champion,CBH03B,"Лампа накаливания, фара с авт. системой стабилизации",Временно нет в продаже
Hella,8GH 002 089-133,"Лампа галоген"" H1"" 12В 55Вт",186
Hella,8GH 002 089-133,"Лампа галоген"" H1"" 12В 55Вт",257
Neolux,N448,"Лампа накаливания, ""H1"" 12В 55Вт",61
Neolux,N448,"Лампа накаливания, ""H1"" 12В 55Вт",65
Neolux,N448-01B,"Лампа накаливания, ""H1"" 12В 55Вт",102
Neolux,N448-01B,"Лампа накаливания, ""H1"" 12В 55Вт",126
Neolux,N448B,"Лампа накаливания, ""H1"" 12В 55Вт",208
Neolux,N448B,"Лампа накаливания, ""H1"" 12В 55Вт",279
Neolux,N448B-HCB,"Лампа накаливания, фара с авт. системой стабилизации",Временно нет в продаже
Neolux,N448B-SCB,"Лампа накаливания, фара дальнего света",474
Neolux,N448EL,"Лампа накаливания, ""H1"" 12В 55Вт",143
Neolux,N448EL,"Лампа накаливания, ""H1"" 12В 55Вт",207
Neolux,N448EL-HCB,"Лампа накаливания, ""H1"" 12В 55Вт, 2шт",Временно нет в продаже
Neolux,N448EL-SCB,"Лампа накаливания, основная фара",371
Neolux,N448EL-SCB,"Лампа накаливания, основная фара",387
Neolux,N448LL-SCB,"Лампа накаливания, основная фара",242
Neolux,N448LL-SCB,"Лампа накаливания, основная фара",302
Osram,64150,"Лампа накаливания, ""Original Line H1"" 12В 55Вт, 1шт",129
Osram,64150,"Лампа накаливания, ""Original Line H1"" 12В 55Вт, 1шт",163
Osram,64150-01B,"Лампа накаливания, ""Original Line H1"" 12В 55Вт, 1шт",137
Osram,64150-01B,"Лампа накаливания, ""Original Line H1"" 12В 55Вт, 1шт",175
Osram,64150 ALS,"Лампа накаливания, ""ALLSEASON H1"" 12В 55Вт, 1шт",277
Osram,64150 ALS,"Лампа накаливания, ""ALLSEASON H1"" 12В 55Вт, 1шт",336
Osram,64150CBI,"Лампа накаливания, ""COOL BLUE INTENSE H1"" 12В 55Вт, 1шт",289
Osram,64150CBI,"Лампа накаливания, ""COOL BLUE INTENSE H1"" 12В 55Вт, 1шт",300
Osram,64150CBI-01B,"Лампа накаливания, ""COOL BLUE INTENSE H1"" 12В 55Вт, 1шт",317
Osram,64150CBI-01B,"Лампа накаливания, ""COOL BLUE INTENSE H1"" 12В 55Вт, 1шт",404
Osram,64150CBI-HCB,"Лампа накаливания, ""H1"" 12В 55Вт, 2шт",622
Osram,64150CBI-HCB,"Лампа накаливания, ""H1"" 12В 55Вт, 2шт",834
Osram,64150NBS,"Лампа галоген"" Night Breaker Silver H1"" 12В 55Вт, 1шт",261
Osram,64150NBS,"Лампа галоген"" Night Breaker Silver H1"" 12В 55Вт, 1шт",288
Osram,64150NBS-01B,"Лампа галоген"" Night Breaker Silver H1"" 12В 55Вт, 1шт",281
Osram,64150NBS-01B,"Лампа галоген"" Night Breaker Silver H1"" 12В 55Вт, 1шт",370
Osram,64150NBS-HCB,"Лампа галоген"" Night Breaker Silver H1"" 12В 55Вт, 2шт",597
Osram,64150NBS-HCB,"Лампа галоген"" Night Breaker Silver H1"" 12В 55Вт, 2шт",647
Osram,64150NL,"Лампа галоген"" Night Breaker Laser H1"" 12В 55Вт, 1шт",599
Osram,64150NL,"Лампа галоген"" Night Breaker Laser H1"" 12В 55Вт, 1шт",644
Osram,64150NL01B,"Лампа галоген"" Night Breaker Laser H1"" 12В 55Вт, 1шт",640
Osram,64150NL01B,"Лампа галоген"" Night Breaker Laser H1"" 12В 55Вт, 1шт",834
Osram,64150NL-HCB,"Лампа галоген"" Night Breaker Laser H1"" 12В 55Вт, 2шт",1268
Osram,64150NL-HCB,"Лампа галоген"" Night Breaker Laser H1"" 12В 55Вт, 2шт",1693
Osram,64150SUP,"Лампа накаливания, ""SUPER H1"" 12В 55Вт, 1шт",159
Osram,64150SUP,"Лампа накаливания, ""SUPER H1"" 12В 55Вт, 1шт",212
Osram,64150ULT,"Лампа накаливания, ""ULTRA LIFE H1"" 12В 55Вт, 1шт",185
Osram,64150ULT-01B,"Лампа накаливания, ""ULTRA LIFE H1"" 12В 55Вт, 1шт",232
Osram,64150ULT-HCB,"Лампа накаливания, ""ULTRA LIFE H1"" 12В 55Вт, 2шт",459
Philips,12258 LLECOB1,"Лампа галоген"" LongerLife Ecovision H1"" 12В 55Вт",222
Philips,12258 LLECOB1,"Лампа галоген"" LongerLife Ecovision H1"" 12В 55Вт",225
Philips,12258 LLECOC1,"Лампа галоген"" LongerLife Ecovision H1"" 12В 55Вт",198
Philips,12258 LLECOC1,"Лампа галоген"" LongerLife Ecovision H1"" 12В 55Вт",262
Philips,12258LLECOS2,"Лампа галоген"" LongLife Ecovision H1"" 12В 55Вт",349
Philips,12258LLECOS2,"Лампа галоген"" LongLife Ecovision H1"" 12В 55Вт",441
Philips,12258 PRB1,"Лампа галоген"" Premium Plus 30 H1"" 12В 55Вт",150
Philips,12258 PRB1,"Лампа галоген"" Premium Plus 30 H1"" 12В 55Вт",154
Philips,12258 PRC1,"Лампа галоген"" Premium Plus 30 H1"" 12В 55Вт",146
Philips,12258 PRC1,"Лампа галоген"" Premium Plus 30 H1"" 12В 55Вт",194
Philips,12258 VPB1,"Лампа галоген"" VisionPlus H1"" 12В 55Вт",303
Philips,12258 VPB1,"Лампа галоген"" VisionPlus H1"" 12В 55Вт",571
Philips,12258 VPS2,"Лампа галоген"" VisionPlus H1"" 12В 55Вт",647
Philips,12258 VPS2,"Лампа галоген"" VisionPlus H1"" 12В 55Вт",832
Philips,12258WHVB1,"Лампа накаливания, в блистере ""WhiteVision""",484
Philips,12258WHVB1,"Лампа накаливания, в блистере ""WhiteVision""",547
Philips,12258WHVSM,"Комплект ламп накаливания ""WhiteVision"", 2 шт",947
Philips,12258WHVSM,"Комплект ламп накаливания ""WhiteVision"", 2 шт",995
Philips,12258 XVB1,"Лампа галоген"" X-tremeVision H1"" 12В 55Вт, 1шт",472
Philips,12258 XVB1,"Лампа галоген"" X-tremeVision H1"" 12В 55Вт, 1шт",715
Philips,12258 XVS2,"Лампа галоген"" X-tremeVision H1"" 12В 55Вт, 2шт",807
Philips,12258 XVS2,"Лампа галоген"" X-tremeVision H1"" 12В 55Вт, 2шт",1145
Philips,12258XVGB1,Лампа,581
Philips,12258XVGB1,Лампа,643
Philips,12258XVGS2,Лампа,1123
Philips,12258XVGS2,Лампа,1223
Trucktec,88.58.101,"Лампа накаливания, основная фара",Временно нет в продаже
Valeo,032 002,"Лампа накаливания, ""H1"" 12В 55Вт, 1шт",99
Valeo,032 002,"Лампа накаливания, ""H1"" 12В 55Вт, 1шт",176
Valeo,032 003,"Лампа накаливания, ""Essential H1"" 12В 55Вт",103
Valeo,032 500,"Лампа накаливания, ""H1"" 12В 55Вт, 1шт",Временно нет в продаже
Valeo,032 502,"Лампа накаливания, ""H1"" 12В 55Вт, 1шт",244
Valeo,032 502,"Лампа накаливания, ""H1"" 12В 55Вт, 1шт",246
Valeo,032 504,"Лампа накаливания, ""H1"" 12В 55Вт, 1шт",141
Valeo,032 504,"Лампа накаливания, ""H1"" 12В 55Вт, 1шт",268
Champion,CBH22S,"Лампа накаливания, основная фара",Временно нет в продаже
Hella,8GH 008 358-121,"Лампа галоген"" H11"" 12В 55Вт",361
Hella,8GH 008 358-121,"Лампа галоген"" H11"" 12В 55Вт",363
Neolux,N711,"Лампа накаливания, фара дальнего света",314
Neolux,N711,"Лампа накаливания, фара дальнего света",316
Neolux,N71101B,Лампы,346
Neolux,N71101B,Лампы,382
Osram,64211,"Лампа галоген"" Original Line H11"" 12В 55Вт, 1шт",461
Osram,64211,"Лампа галоген"" Original Line H11"" 12В 55Вт, 1шт",2220
Osram,64211-01B,"Лампа галоген"" Original Line H11"" 12В 55Вт, 1шт",576
Osram,64211-01B,"Лампа галоген"" Original Line H11"" 12В 55Вт, 1шт",654
Osram,64211CBI,Лампа газоразрядная,890
Osram,64211CBI,Лампа газоразрядная,1172
Osram,64211CBI-HCB,Лампа osram 64211 h11 55 w 12v,1887
Osram,64211CBI-HCB,Лампа osram 64211 h11 55 w 12v,2377
Osram,64211FBR-HCB,"Лампа накаливания"" H11"" 12В 55Вт",1869
Osram,64211FBR-HCB,"Лампа накаливания"" H11"" 12В 55Вт",1951
Osram,64211NBS,"Лампа галоген"" Night Breaker Silver H11"" 12В 55Вт, 1шт",938
Osram,64211NBS,"Лампа галоген"" Night Breaker Silver H11"" 12В 55Вт, 1шт",1249
Osram,64211NBS-HCB,"Лампа галоген"" Night Breaker Silver H11"" 12В 55Вт, 2шт",1937
Osram,64211NBS-HCB,"Лампа галоген"" Night Breaker Silver H11"" 12В 55Вт, 2шт",2119
Osram,64211NL,"Лампа галоген"" Night Breaker Laser H11"" 12В 55Вт, 1шт",1172
Osram,64211NL,"Лампа галоген"" Night Breaker Laser H11"" 12В 55Вт, 1шт",1562
Osram,64211NL-01B,"Лампа галоген"" Night Breaker Laser H11"" 12В 55Вт, 1шт",1219
Osram,64211NL-01B,"Лампа галоген"" Night Breaker Laser H11"" 12В 55Вт, 1шт",1587
Osram,64211NL-HCB,"Лампа галоген"" Night Breaker Laser H11"" 12В 55Вт, 2шт",2399
Osram,64211NL-HCB,"Лампа галоген"" Night Breaker Laser H11"" 12В 55Вт, 2шт",2893
Osram,64211ULT,Лампа h11 12v 55w pgj19-2 ultra life 4 года гарантии 1 шт,762
Osram,64211ULT,Лампа h11 12v 55w pgj19-2 ultra life 4 года гарантии 1 шт,1013
Osram,64211ULT-01B,Лампа,853
Osram,64211ULT-01B,Лампа,1066
Osram,64211ULT-HCB,Лампа,1631
Osram,64211ULT-HCB,Лампа,1749
Osram,66220CW,"Лампа накаливания, основная фара",6363
Philips,12362LLECOB1,"Лампа галоген"" H11"" 12В 55Вт",627
Philips,12362LLECOB1,"Лампа галоген"" H11"" 12В 55Вт",694
Philips,12362 LLECOC1,"Лампа галоген"" LongerLife EcoVision H11"" 12В 55Вт",595
Philips,12362 LLECOC1,"Лампа галоген"" LongerLife EcoVision H11"" 12В 55Вт",626
Philips,12362PRB1,"Лампа галоген"" H11"" 12В 55Вт",532
Philips,12362PRB1,"Лампа галоген"" H11"" 12В 55Вт",609
Philips,12362 PRC1,"Лампа галоген"" H11"" 12В 55Вт",541
Philips,12362 PRC1,"Лампа галоген"" H11"" 12В 55Вт",599
Philips,12362WHVB1,"Лампа накаливания, в блистере ""WhiteVision""",1493
Philips,12362WHVB1,"Лампа накаливания, в блистере ""WhiteVision""",1861
Philips,12366 C1,"Лампа галоген"" H9"" 12В, 1шт",1014
Philips,12366 C1,"Лампа галоген"" H9"" 12В, 1шт",1307
Valeo,032 524,"Лампа накаливания, ""H11"" 12В 55Вт, 1шт",650
Valeo,032 525,"Лампа галоген"" Life x2 H11"" 12В 55Вт",516
Vemo,V99-84-0079,Лампа накаливания,Временно нет в продаже
Philips,12498 B2,"Лампа накаливания"" Premium P21W"" 12В 21Вт",90
Philips,12498 B2,"Лампа накаливания"" Premium P21W"" 12В 21Вт",119
Philips,12498 CP,"Лампа накаливания"" Premium P21W"" 12В 21Вт",36
Philips,12498 LLECOB2,"Лампа накаливания, ""P21W"" 12В 21Вт",116
Philips,12498 LLECOCP,"Лампа накаливания, ""P21W"" 12В 21Вт",87
Philips,12498 LLECOCP,"Лампа накаливания, ""P21W"" 12В 21Вт",100
Philips,12498 VPB2,"Лампа накаливания"" VisionPlus P21W"" 12В 21Вт",135
Philips,12498 VPB2,"Лампа накаливания"" VisionPlus P21W"" 12В 21Вт",137
Champion,CBM60S,"Лампа накаливания, oсвещение салона",Временно нет в продаже
Champion,CBM62B,"Лампа накаливания, габаритные фонари",Временно нет в продаже
Hella,8GP 003 594-121,Лампа накаливания,15
Neolux,N501,"Лампа накаливания, ""W5W"" 12В 5Вт",36
Neolux,N501,"Лампа накаливания, ""W5W"" 12В 5Вт",40
Neolux,N501-02B,"Лампа накаливания, ""W5W"" 12В 5Вт, 2шт",53
Neolux,N501-02B,"Лампа накаливания, ""W5W"" 12В 5Вт, 2шт",63
Osram,2825,"Лампа накаливания габаритных огней ""W5W""",46
Osram,2825,"Лампа накаливания габаритных огней ""W5W""",55
Osram,2825-02B,"Лампа накаливания, ""ORIGINAL LINE W5W"" 12В 5Вт, 2шт",49
Osram,2825-02B,"Лампа накаливания, ""ORIGINAL LINE W5W"" 12В 5Вт, 2шт",52
Osram,2825HCBI,"Лампа накаливания, ""COOL BLUE INTENSE W5W"" 12В 5Вт, 1шт",155
Osram,2825HCBI,"Лампа накаливания, ""COOL BLUE INTENSE W5W"" 12В 5Вт, 1шт",158
Osram,2825HCBI-02B,"Лампа накаливания, ""COOL BLUE INTENSE W5W"" 12В 5Вт, 2шт",330
Osram,2825HCBI-02B,"Лампа накаливания, ""COOL BLUE INTENSE W5W"" 12В 5Вт, 2шт",548
Osram,2825ULT,"Лампа накаливания, ""ULTRA LIFE W5W"" 12В 5Вт, 1шт",41
Osram,2825ULT-02B,"Лампа накаливания, ""ULTRA LIFE W5W"" 12В 5Вт, 2шт",80
Philips,12961 B2,"Комплект ламп накаливания, в блистере",86
Philips,12961 B2,"Комплект ламп накаливания, в блистере",92
Philips,12961 CP,Лампа накаливания,49
Philips,12961 CP,Лампа накаливания,55
Philips,12961 LLECOB2,"Лампа накаливания, ""W5W"" 12В 5Вт",120
Philips,12961 LLECOB2,"Лампа накаливания, ""W5W"" 12В 5Вт",128
Philips,12961 LLECOCP,"Лампа накаливания, ""W5W"" 12В 5Вт",60
Philips,12961 LLECOCP,"Лампа накаливания, ""W5W"" 12В 5Вт",72
Philips,12961NBVB2,Лампа накаливания,182
Philips,12961NBVB2,Лампа накаливания,224
Valeo,032 116,"Лампа накаливания, ""W5W"" 12В 5Вт, 2шт",Временно нет в продаже
Valeo,032 211,Лампа накаливания,39
Valeo,032 211,Лампа накаливания,40
Vemo,V99-84-0001,"Лампа накаливания, ""W5W"" 12В 5Вт",203
Champion,CBM48S,"Лампа накаливания, фонарь указателя поворота",Временно нет в продаже
Champion,CBM60S,"Лампа накаливания, oсвещение салона",Временно нет в продаже
Champion,CBM62B,"Лампа накаливания, габаритные фонари",Временно нет в продаже
Hella,8GA 006 841-121,Лампа накаливания,38
Neolux,N581,"Лампа накаливания, ""PY21W"" 12В 21Вт",53
Neolux,N581,"Лампа накаливания, ""PY21W"" 12В 21Вт",65
Neolux,N581-02B,"Лампа накаливания, ""PY21W"" 12В 21Вт, 2шт",89
Neolux,N581-02B,"Лампа накаливания, ""PY21W"" 12В 21Вт, 2шт",115
Osram,7507,"Лампа накаливания, ""PY21W"" 12В 21Вт",63
Osram,7507-02B,"Лампа накаливания, ""ORIGINAL LINE PY21W"" 12В 21Вт, 2шт",141
Osram,7507-02B,"Лампа накаливания, ""ORIGINAL LINE PY21W"" 12В 21Вт, 2шт",191
Osram,7507DC-02B,"Лампа накаливания, ""DIADEM CHROME PY21W"" 12В 21Вт, 2шт",612
Osram,7507DC-02B,"Лампа накаливания, ""DIADEM CHROME PY21W"" 12В 21Вт, 2шт",655
Osram,7507ULT,"Лампа накаливания, ""ULTRA LIFE PY21W"" 12В 21Вт, 1шт",122
Osram,7507ULT,"Лампа накаливания, ""ULTRA LIFE PY21W"" 12В 21Вт, 1шт",137
Osram,7507ULT-02B,"Лампа накаливания, ""ULTRA LIFE PY21W"" 12В 21Вт, 2шт",212
Osram,7507ULT-02B,"Лампа накаливания, ""ULTRA LIFE PY21W"" 12В 21Вт, 2шт",282
Philips,12396 NAB2,"Лампа накаливания, ""WY5W"" 12В 5Вт",133
Philips,12396 NAB2,"Лампа накаливания, ""WY5W"" 12В 5Вт",163
Philips,12396 NACP,"Лампа накаливания, ""WY5W"" 12В 5Вт",69
Philips,12396 NACP,"Лампа накаливания, ""WY5W"" 12В 5Вт",90
Philips,12496 LLECOCP,"Лампа накаливания, ""PY21W"" 12В 21Вт",83
Philips,12496 NAB2,"Лампа накаливания"" Premium PY21W"" 12В 21Вт",107
Philips,12496 NAB2,"Лампа накаливания"" Premium PY21W"" 12В 21Вт",235
Philips,12496 NACP,"Лампа накаливания"" Premium PY21W"" 12В 21Вт",78
Philips,12496 NACP,"Лампа накаливания"" Premium PY21W"" 12В 21Вт",99
Philips,12496 SVB2,"Лампа накаливания"" SilverVision PY21W"" 12В 21Вт",687
Philips,12496 SVB2,"Лампа накаливания"" SilverVision PY21W"" 12В 21Вт",716
Philips,12496 SVS2,"Лампа накаливания"" SilverVision PY21W"" 12В 21Вт",1393
Valeo,032 108,"Лампа накаливания, ""PY21W"" 12В 21Вт, 2шт",90
Vemo,V99-84-0009,Лампа накаливания,Временно нет в продаже
Philips,12498 B2,"Лампа накаливания"" Premium P21W"" 12В 21Вт",90
Philips,12498 B2,"Лампа накаливания"" Premium P21W"" 12В 21Вт",119
Philips,12498 CP,"Лампа накаливания"" Premium P21W"" 12В 21Вт",49
Philips,12498 CP,"Лампа накаливания"" Premium P21W"" 12В 21Вт",51
Philips,12498 LLECOB2,"Лампа накаливания, ""P21W"" 12В 21Вт",120
Philips,12498 LLECOCP,"Лампа накаливания, ""P21W"" 12В 21Вт",87
Philips,12498 LLECOCP,"Лампа накаливания, ""P21W"" 12В 21Вт",100
Philips,12498 VPB2,"Лампа накаливания"" VisionPlus P21W"" 12В 21Вт",139
Philips,12498 VPB2,"Лампа накаливания"" VisionPlus P21W"" 12В 21Вт",182
Champion,CBM44S,"Лампа накаливания, фара дневного освещения",Временно нет в продаже
Hella,8GD 002 078-121,Лампа накаливания,50
Hella,8GD 002 078-121,Лампа накаливания,115
Neolux,N380,"Лампа накаливания, ""P21/5W"" 12В 21/5Вт",46
Neolux,N380,"Лампа накаливания, ""P21/5W"" 12В 21/5Вт",75
Neolux,N380-02B,"Лампа накаливания, ""P21/5W"" 12В 21/5Вт, 2шт",76
Neolux,N380-02B,"Лампа накаливания, ""P21/5W"" 12В 21/5Вт, 2шт",96
Osram,7528,"Лампа накаливания, ""Original Line P21/5W"" 12В 21/5Вт, 1шт",42
Osram,7528,"Лампа накаливания, ""Original Line P21/5W"" 12В 21/5Вт, 1шт",44
Osram,7528-02B,"Лампа накаливания, ""ORIGINAL LINE P21/5W"" 12В 21/5Вт, 2шт",113
Osram,7528-02B,"Лампа накаливания, ""ORIGINAL LINE P21/5W"" 12В 21/5Вт, 2шт",144
Osram,7528ULT,"Лампа накаливания, ""ULTRA LIFE P21/5W"" 12В 21/5Вт, 1шт",90
Osram,7528ULT,"Лампа накаливания, ""ULTRA LIFE P21/5W"" 12В 21/5Вт, 1шт",111
Osram,7528ULT-02B,"Лампа накаливания, ""ULTRA LIFE P21/5W"" 12В 21/5Вт, 2шт",154
Osram,7528ULT-02B,"Лампа накаливания, ""ULTRA LIFE P21/5W"" 12В 21/5Вт, 2шт",210
Philips,12499 B2,"Лампа накаливания"" Premium P21/5W"" 12В 21/5Вт",91
Philips,12499 B2,"Лампа накаливания"" Premium P21/5W"" 12В 21/5Вт",99
Philips,12499 CP,"Лампа накаливания"" Premium P21/5W"" 12В 21/5Вт",63
Philips,12499 CP,"Лампа накаливания"" Premium P21/5W"" 12В 21/5Вт",67
Philips,12499 LLECOB2,"Лампа накаливания, ""P21/5W"" 12В 21/5Вт",157
Philips,12499 LLECOB2,"Лампа накаливания, ""P21/5W"" 12В 21/5Вт",168
Philips,12499 LLECOCP,"Лампа накаливания, ""P21/5W"" 12В 21/5Вт",61
Philips,12499 VPB2,"Лампа накаливания"" VisionPlus P21/5W"" 12В 21/5Вт",217
Philips,12499 VPB2,"Лампа накаливания"" VisionPlus P21/5W"" 12В 21/5Вт",246
Valeo,032 107,"Лампа накаливания, ""P21/5W"" 12В 21/5Вт",81
Valeo,032 112,"Лампа накаливания, ""P21/5W"" 12В 21/5Вт, 2шт",146
Valeo,032 207,"Лампа накаливания, ""Essential P21/5W"" 12В 21/5Вт",50
Valeo,032 207,"Лампа накаливания, ""Essential P21/5W"" 12В 21/5Вт",273
Vemo,V99-84-0005,"Лампа накаливания, ""P21/5W"" 12В 21/5Вт",Временно нет в продаже
Vemo,V99-84-0003,Лампа накаливания,Временно нет в продаже
Alkar,6125187,Зеркало боковое,Временно нет в продаже
Alkar,6126187,Зеркало боковое,Временно нет в продаже
Alkar,6201178,Фонарь указателя поворота,Временно нет в продаже
BGA,PK1401,Пробка сливная масляного поддона двигателя,Временно нет в продаже
Goetze,08-450400-00,"Кольца поршневые, комплект std",Временно нет в продаже
Ajusa,57067300,"Колпачки маслосъёмные, комплект",Временно нет в продаже
Glaser,N76826-01,"Комплект прокладок, стержень клапана",Временно нет в продаже
BGA,TC7301FK,Ремкомплект цепи ГРМ,16389
Pierburg,7.04929.02.0,Масляный насос,13826
Pierburg,7.04929.02.0,Масляный насос,16744
Alco,MD-743,Масляный фильтр,394
AMC Filters,NO-2231,Фильтр масляный двигателя,Временно нет в продаже
Asam,74169,Датчик кислородный,3028
Asam,74169,Датчик кислородный,3329
Bosch,0 280 158 293,Форсунка топливная,Временно нет в продаже
Meat&Doria,75114293,Клапанная форсунка,Временно нет в продаже
Elring,243.850,"Комплект уплотнительных колец, клапанная форсунка",156
