{
  'expanded': False,
  'CatalogName': 'Meyle',
  'CatalogId': 1021,
  'IsOriginal': False,
  'IsFav': False,
  'BlockText': 'Запрошенный артикул',
  'BlockTypeId': -10,
  'ProdUrl': '/Parts.axd?pid=5880A3E0&flag=385892448',
  'ProductIdEnc': '5880A3E0',
  'srcId': 29,
  'PartNumber': '029 330 1300',
  'Description': 'Щётка стеклоочистителя',
  'InfoHTML': '<span class="img"></span><span class="params"></span><span class="appl"></span>',
  'PriceCount': 2,
  'MoreOffers': 0,
  'restoredIcon': '',
  'AbsoluteRatingString': '',
  'AbsoluteRating': '',
  'sortField': '',
  'minPrice': 0,
  'maxPrice': 0,
  'AggregatedParts': [
    {
      'StatisticHTML': "<a onclick='javascript: ShowTipLayer(this,event,this.href, 30,130); return false' target='_blank' href='/Price/hint/Graph.aspx?s=5880A3E0_01002502e300cad8036aa8330100a601_549'>04.09 13:00<span></span></a>",
      'price': 724,
      'priceString': '724 ₽',
      'avail': 0,
      'availString': '<a title="Склад поставщика.Заказывайте в необходимом количестве" class="gal"></a>',
      'days': 19,
      'pack': '',
      'InlineProductId': '5880A3E0_01002502e300cad8036aa8330100a601_549',
      'basketHTML': '<a class="basket" id="_5880A3E0_01002502e300cad8036aa8330100a601_549" href="/Profile/Login?ReturnUrl=%2fPrice%2fdefault.aspx%3fpid%3d5880A3E0%26sr%3d29%26cn%3dRenault_Captur_0.9_TCe_90_" onclick="SsoUser.OpenLoginForm(event)" target="_parent" title="Купить"></a>',
      'highlightColor': None,
      'ProductIdEnc': '5880A3E0'
    },
    {
      'StatisticHTML': "<a onclick='javascript: ShowTipLayer(this,event,this.href, 30,130); return false' target='_blank' href='/Price/hint/Graph.aspx?s=5880A3E0_010025028104c0d8036a6d210100b101_549'>03.09 14:00<span></span></a>",
      'price': 748,
      'priceString': '748 ₽',
      'avail': 0,
      'availString': '<a title="Склад поставщика.Заказывайте в необходимом количестве" class="gal"></a>',
      'days': 18,
      'pack': '',
      'InlineProductId': '5880A3E0_010025028104c0d8036a6d210100b101_549',
      'basketHTML': '<a class="basket" id="_5880A3E0_010025028104c0d8036a6d210100b101_549" href="/Profile/Login?ReturnUrl=%2fPrice%2fdefault.aspx%3fpid%3d5880A3E0%26sr%3d29%26cn%3dRenault_Captur_0.9_TCe_90_" onclick="SsoUser.OpenLoginForm(event)" target="_parent" title="Купить"></a>',
      'highlightColor': None,
      'ProductIdEnc': '5880A3E0'
    }
  ],
  'DirectOffers': []
}
