[
  {
    "expanded": false,
    "CatalogName": "Klokkerholm",
    "CatalogId": 179,
    "IsOriginal": false,
    "IsFav": false,
    "BlockText": "Запрошенный артикул",
    "BlockTypeId": -10,
    "ProdUrl": "/Parts.axd?pid=4BA0E237\u0026flag=385876064",
    "ProductIdEnc": "4BA0E237",
    "srcId": 29,
    "PartNumber": "60 14 95 1A1",
    "Description": "Бампер задний",
    "InfoHTML": "\u003cspan class=\"img\"\u003e\u003c/span\u003e\u003cspan class=\"params\"\u003e\u003c/span\u003e\u003cspan class=\"appl\"\u003e\u003c/span\u003e",
    "PriceCount": 0,
    "MoreOffers": 0,
    "restoredIcon": "",
    "AbsoluteRatingString": "",
    "AbsoluteRating": "",
    "sortField": "",
    "minPrice": 0,
    "maxPrice": 0,
    "AggregatedParts": [],
    "DirectOffers": []
  },
  {
    "expanded": false,
    "CatalogName": "Renault",
    "CatalogId": 5,
    "IsOriginal": true,
    "IsFav": false,
    "BlockText": "Предложения по оригинальным производителям",
    "BlockTypeId": -1,
    "ProdUrl": "/Parts.axd?pid=3BC0A249\u0026flag=16384",
    "ProductIdEnc": "3BC0A249",
    "srcId": 29,
    "PartNumber": "85......2R",
    "Description": "Бампер",
    "InfoHTML": "",
    "PriceCount": 4,
    "MoreOffers": 3,
    "restoredIcon": "",
    "AbsoluteRatingString": "",
    "AbsoluteRating": "",
    "sortField": "",
    "minPrice": 0,
    "maxPrice": 0,
    "AggregatedParts": [
      {
        "StatisticHTML": "\u003ca onclick=\u0027javascript: ShowTipLayer(this,event,this.href, 30,130); return false\u0027 target=\u0027_blank\u0027 href=\u0027/Price/hint/Graph.aspx?s=4BA0E237_01004302e30009940361d81001007786_579\u0027\u003eСр 14:00\u003cspan\u003e\u003c/span\u003e\u003c/a\u003e",
        "price": 13824,
        "priceString": "13 824 ₽",
        "avail": 0,
        "availString": "\u003ca title=\"Склад поставщика.Заказывайте в необходимом количестве\" class=\"gal\"\u003e\u003c/a\u003e",
        "days": 3,
        "pack": "",
        "InlineProductId": "4BA0E237_01004302e30009940361d81001007786_579",
        "basketHTML": "\u003ca class=\"basket\" id=\"_4BA0E237_01004302e30009940361d81001007786_579\" href=\"/Profile/Login?ReturnUrl=%2fPrice%2fdefault.aspx%3fpid%3d4BA0E237%26sr%3d29%26cn%3dRenault_Captur_0.9_TCe_90_(H4B_400)\" onclick=\"SsoUser.OpenLoginForm(event)\" target=\"_parent\" title=\"Купить\"\u003e\u003c/a\u003e",
        "highlightColor": null,
        "ProductIdEnc": "3BC0A249"
      }
    ],
    "DirectOffers": []
  }
]